<?xml version="1.0" encoding="utf-8"?>
<!-- Generator: Adobe Illustrator 25.2.3, SVG Export Plug-In . SVG Version: 6.00 Build 0)  -->
<svg version="1.1" id="Ebene_1" xmlns="http://www.w3.org/2000/svg" xmlns:xlink="http://www.w3.org/1999/xlink" x="0px" y="0px"
	 viewBox="0 0 595.28 841.89" style="enable-background:new 0 0 595.28 841.89;" xml:space="preserve">
<style type="text/css">
	.st0{fill:#904B97;}
	.st1{fill:#4B5997;}
	.st2{fill:#6EC8E1;}
	.st3{fill:#253673;}
	.st4{fill:#4D83C3;}
	.st5{fill:#8EBFE8;}
	.st6{fill:#BAC9E9;}
</style>
<circle class="st0" cx="407.05" cy="679.66" r="59.78"/>
<g>
	<polygon class="st1" points="369.43,640.61 139.92,741.67 367.36,636.05 	"/>
</g>
<g>
	<polygon class="st1" points="435.54,675.76 223.58,765.55 433.53,671.18 	"/>
</g>
<g>
	<polygon class="st1" points="428.54,734.78 199.88,834.09 426.5,730.21 	"/>
</g>
<path class="st2" d="M442.27,240.35c-1.64,14.96-5.59,29.24-11.48,42.46c-79.13,0-143.16-25.95-143.16-56.88
	C331.78,234.93,385.21,240.35,442.27,240.35z"/>
<path class="st3" d="M406.16,320.65C379.9,349.73,341.9,368,299.64,368c-67.18,0-123.58-46.16-139.2-108.5
	C173.1,293.27,269.79,320.65,406.16,320.65z"/>
<path class="st4" d="M159.32,254.67c-0.01-0.05-0.02-0.1-0.03-0.15"/>
<path class="st4" d="M159.57,255.82c-0.09-0.39-0.17-0.77-0.25-1.16"/>
<path class="st4" d="M159.59,255.94c-0.01-0.04-0.02-0.08-0.03-0.12"/>
<path class="st4" d="M159.75,256.6c-0.08-0.34-0.16-0.69-0.24-1.03"/>
<path class="st4" d="M159.29,254.52c-0.05-0.24-0.1-0.49-0.15-0.73"/>
<path class="st5" d="M443.14,224.5c0,5.36-0.29,10.64-0.87,15.85c-57.06,0-110.49-5.42-154.64-14.42
	c-70.66-14.4-117.57-37.96-117.58-63.14v-0.01c12.88-26.98,33.93-49.31,59.95-63.77c0,42.72,91.62,77.29,204.84,77.29
	C440.21,191.36,443.14,207.59,443.14,224.5z"/>
<path class="st4" d="M159.13,253.79c-1.96-9.45-2.99-19.25-2.99-29.29c0-22.09,4.99-43.02,13.91-61.71
	c0.01,25.18,46.92,48.74,117.58,63.14c0,30.93,64.03,56.88,143.16,56.88c-6.19,13.92-14.54,26.68-24.63,37.84
	c-136.37,0-233.06-27.38-245.72-61.15c0-0.01-0.01-0.03-0.01-0.04c-0.28-1.12-0.55-2.25-0.8-3.39"/>
<path class="st6" d="M434.84,176.3C321.62,176.3,230,141.73,230,99.01C250.63,87.53,274.37,81,299.64,81
	C361.98,81,415.04,120.76,434.84,176.3z"/>
<g>
	<path class="st0" d="M310.91,250.33c-5.36,3.51-10.82,6.79-16.31,10.01c-5.49,3.23-11.02,6.33-16.58,9.41
		c-5.59,3.03-11.08,6.11-16.83,8.94c-2.85,1.44-5.74,2.81-8.64,4.16c-2.9,1.34-5.8,2.7-8.74,3.96c-2.94,1.27-5.89,2.52-8.85,3.74
		c-2.96,1.22-5.96,2.36-8.95,3.5c-5.99,2.31-12.06,4.37-18.17,6.37c-6.1,2-12.32,3.73-18.43,5.45c-6.15,1.67-12.34,3.22-18.56,4.72
		c-6.24,1.42-12.51,2.76-18.83,3.96c-6.33,1.12-12.69,2.19-19.09,2.99c-1.6,0.2-3.2,0.39-4.81,0.57l-4.83,0.52
		c-3.32,0.34-6.71,0.53-10.22,0.54c-1.76,0-3.55-0.04-5.43-0.18c-1.88-0.15-3.83-0.36-6.04-0.89c-0.53-0.12-1.15-0.31-1.72-0.48
		c-0.6-0.19-1.25-0.44-1.89-0.7l-1.04-0.49l-0.52-0.26l-0.58-0.35c-0.39-0.25-0.75-0.46-1.15-0.76c-0.42-0.33-0.83-0.68-1.23-1.04
		l-0.29-0.28l-0.31-0.35c-0.21-0.24-0.41-0.48-0.6-0.72c-0.19-0.25-0.38-0.5-0.56-0.75c-0.18-0.29-0.35-0.59-0.51-0.9
		c-0.68-1.21-1.04-2.54-1.25-3.89c-0.1-1.19-0.1-2.55,0.11-3.46c0.09-0.49,0.19-1.03,0.32-1.46c0.13-0.39,0.27-0.79,0.42-1.18
		c0.3-0.84,0.62-1.37,0.95-2c0.34-0.65,0.67-1.1,1-1.6l0.51-0.73l0.46-0.58c0.31-0.38,0.62-0.77,0.94-1.12
		c1.27-1.47,2.61-2.77,3.96-3.99c2.71-2.43,5.5-4.46,8.29-6.28c1.39-0.91,2.78-1.78,4.14-2.62c1.37-0.84,2.69-1.66,4.11-2.49
		c2.79-1.64,5.59-3.23,8.43-4.75c5.68-3.02,11.43-5.83,17.28-8.41c5.82-2.61,11.76-4.97,17.77-7.15
		c-4.91,4.13-9.94,7.99-14.89,11.93c-4.95,3.93-9.89,7.82-14.7,11.81c-2.41,1.98-4.8,3.97-7.13,6l-3.55,3.07
		c-1.18,1.02-2.32,2.03-3.43,3.04c-2.19,2.03-4.28,4.03-6,6.09c-0.86,1.03-1.66,2.05-2.31,3.09c-0.71,1.08-1.15,2.02-1.02,2.02
		c0.02-0.02,0.03-0.04,0.04-0.06c0.03-0.05,0.09-0.2,0.11-0.3c0.01-0.13,0.14-0.7,0.04-1.1c-0.02-0.58-0.23-1.13-0.47-1.67
		c-0.07-0.13-0.15-0.26-0.23-0.37c-0.05-0.1-0.11-0.2-0.18-0.3c-0.07-0.1-0.14-0.19-0.22-0.27l-0.12-0.12l-0.07-0.09
		c-0.09-0.11-0.19-0.21-0.31-0.29c-0.08-0.07-0.08-0.1-0.14-0.14c-0.02-0.02-0.05-0.03-0.07-0.05c-0.01-0.01,0.01-0.01,0.02-0.02
		c0.02-0.01,0.03-0.02,0.04-0.01c0.1,0,0.2,0.02,0.36,0.04c0.2,0.01,0.33,0.05,0.58,0.07c0.89,0.09,2.09,0.16,3.35,0.13
		c1.27-0.02,2.64-0.1,4.03-0.23c2.79-0.26,5.68-0.69,8.61-1.15l4.53-0.78c1.52-0.26,3.03-0.54,4.54-0.83
		c6.05-1.13,12.11-2.28,18.15-3.62c6.05-1.25,12.1-2.61,18.14-4.05c6.06-1.36,12.1-2.85,18.16-4.34c6.1-1.44,12.07-2.98,18.06-4.52
		c6-1.54,11.96-3.23,17.94-4.89l8.95-2.6c2.99-0.86,5.97-1.75,8.95-2.66l8.95-2.73l8.94-2.81l4.48-1.43l4.49-1.49l9.02-2.91
		c6.04-1.89,12.09-3.75,18.19-5.49C298.55,253.48,304.68,251.79,310.91,250.33z"/>
</g>
<g>
	<path class="st0" d="M415.84,140.12c5.92-3.26,11.87-6.23,17.94-9.05c6.07-2.81,12.26-5.41,18.67-7.64l4.84-1.62
		c1.63-0.51,3.28-0.97,4.93-1.45l5-1.31l5.09-1.09c6.83-1.37,13.89-2.13,21.03-2.17l2.58,0.47c0.08-0.01,0.83,0.13,1.78,0.3
		c0.97,0.19,2.21,0.43,3.75,0.94c1.52,0.52,3.5,1.33,5.55,3.1c0.51,0.47,1,0.94,1.46,1.48c0.45,0.56,0.9,1.15,1.27,1.76
		c0.36,0.62,0.71,1.27,0.97,1.91c0.24,0.63,0.46,1.27,0.65,1.92l-0.21-0.71c0.38,1.08,0.71,2.24,0.94,3.53
		c0.23,1.29,0.37,2.72,0.29,4.33c-0.09,1.6-0.42,3.39-1.15,5.2c-0.72,1.8-1.89,3.57-3.26,4.95l0.67-0.74
		c-7.14,9.03-15.5,17-24.45,23.87c-8.99,6.82-18.51,12.61-28.2,17.67c-9.72,5.05-19.51,9.43-29.47,13.68
		c-1.27,0.54-2.52,1.1-3.79,1.62c-0.61,0.27-1.37,0.5-2.05,0.75l-1.93,0.65c-2.55,0.88-5.12,1.68-7.68,2.53
		c-5.14,1.64-10.27,3.31-15.54,4.88c4.01-3.77,8.32-7.15,12.7-10.41c2.21-1.6,4.41-3.21,6.65-4.73l1.66-1.14
		c0.51-0.37,0.99-0.67,1.52-1.1c1.04-0.83,2.1-1.61,3.15-2.42c8.56-6.5,17.45-12.61,26.01-18.7c8.61-6.06,16.92-12.19,24.74-18.65
		c7.77-6.5,14.95-13.43,21.41-20.95l0.67-0.74c-0.37,0.38-0.73,0.94-0.91,1.43c-0.19,0.5-0.23,0.89-0.23,1.07
		c0.03,0.38,0.11,0.04-0.04-0.49l-0.25-0.89l0.04,0.18c0.16,0.74,0.89,1.95,1.59,2.48c0.7,0.55,1,0.55,0.83,0.46
		c-0.17-0.1-0.7-0.28-1.49-0.49c-0.81-0.24-1.85-0.46-3.49-1.03l2.57,0.47c-6.02-0.52-12.15-0.57-18.39-0.33l-4.69,0.28l-4.73,0.36
		l-4.76,0.48l-4.79,0.54c-6.41,0.78-12.9,1.71-19.48,2.57C429.24,138.95,422.59,139.8,415.84,140.12z"/>
</g>
<circle class="st0" cx="374.99" cy="218.94" r="18.34"/>
<g>
	<polygon class="st1" points="363.09,207.63 293.84,241.17 362.2,205.84 	"/>
</g>
<g>
	<polygon class="st1" points="383.78,217.62 319.77,247.48 382.91,215.82 	"/>
</g>
<g>
	<polygon class="st1" points="382.35,235.79 313.33,268.78 381.46,234 	"/>
</g>
<path class="st0" d="M113.29,405.24c5.85-0.1,10.28,4.71,14.78,9.59c5.86,6.36,8.63,12.76,9.73,15.47
	c4.24,10.5,13.06,32.32,3.7,54.75c-1.45,3.48-10.95,26.22-26.19,26.19c-14.11-0.03-23.14-19.59-26.19-26.19
	c-4.99-10.81-5.46-20.42-5.61-24.61C83.34,455.58,83.5,445,88.34,433c3.33-8.27,7.46-13.67,9.48-16.13
	C102.92,410.63,107.25,405.35,113.29,405.24z"/>
<path class="st0" d="M83.47,459.58c4.29,0,8.44,14.63,8.83,26.75c0.47,14.58-4.31,31.3-8.89,31.29c-4.59-0.01-9.27-16.76-8.78-31.29
	C75.05,474.23,79.18,459.58,83.47,459.58z"/>
<path class="st0" d="M145.65,457.74c4.28,0,8.36,14.72,8.83,26.75c0.59,14.93-4.12,32.11-8.74,32.12
	c-4.62,0.02-9.49-17.12-8.93-32.12C137.27,472.41,141.38,457.74,145.65,457.74z"/>
<path class="st0" d="M113.78,385.12c-0.83,0.84-1.95,2.03-3.19,3.52c-2.7,3.23-4.55,6.18-6.21,9.09c-2.29,4.01-4.16,7.82-6.79,13.72
	c-1.82,4.09-4.13,9.48-6.66,15.92c4.99,1.75,12.16,3.66,20.93,4c10.69,0.41,19.36-1.67,24.91-3.48c-2.24-6.64-4.41-12.15-6.16-16.33
	c-3.62-8.63-5.77-12.31-7.03-14.33c-2.49-4.02-4.73-6.76-6.42-8.65C115.84,387.12,114.67,385.96,113.78,385.12z"/>
<rect x="207.81" y="435.35" class="st0" width="73.78" height="54"/>
<rect x="232.93" y="427.96" class="st0" width="23.67" height="9"/>
<rect x="220.26" y="419.56" class="st0" width="49.67" height="9.67"/>
<rect x="220.26" y="487.68" class="st0" width="2.67" height="7.96"/>
<rect x="267.6" y="487.68" class="st0" width="2.33" height="7.96"/>
<rect x="217.93" y="493.35" class="st0" width="7.17" height="7.17"/>
<rect x="265.18" y="493.35" class="st0" width="7.17" height="7.17"/>
<rect x="230.43" y="433.02" class="st0" width="28.62" height="4.62"/>
<rect x="238.3" y="418.64" class="st0" width="13.88" height="3.5"/>
<path class="st0" d="M248.03,517.45"/>
<ellipse class="st0" cx="102.17" cy="505.79" rx="4.25" ry="8.33"/>
<ellipse class="st0" cx="127.42" cy="505.79" rx="4.25" ry="8.33"/>
<circle class="st0" cx="387.7" cy="423.64" r="33.75"/>
<polygon class="st0" points="355.25,501.73 354.07,425.3 356.43,425.3 "/>
<polygon class="st0" points="387.72,525.6 386.54,449.17 388.9,449.17 "/>
<polygon class="st0" points="420.15,499.1 418.98,422.66 421.33,422.66 "/>
<polygon class="st0" points="403.94,512.87 402.76,436.43 405.11,436.43 "/>
<polygon class="st0" points="371.48,512.87 370.31,436.43 372.66,436.43 "/>
<rect x="465.95" y="417.35" class="st0" width="44" height="73.06"/>
<circle class="st0" cx="487.95" cy="416.06" r="22"/>
<path class="st0" d="M467.82,492.32"/>
<path class="st0" d="M473.82,507.5c-1.96,0-3.92,0-5.88,0c-0.67-5.94-1.33-11.89-2-17.83h9.5
	C474.9,495.61,474.36,501.55,473.82,507.5z"/>
<path class="st0" d="M508.32,507.5c-1.96,0-3.92,0-5.88,0c-0.67-5.94-1.33-11.89-2-17.83h9.5
	C509.4,495.61,508.86,501.55,508.32,507.5z"/>
<path class="st0" d="M485.38,507.5c-1.96,0-3.92,0-5.88,0c-0.67-5.94-1.33-11.89-2-17.83h9.5
	C486.47,495.61,485.93,501.55,485.38,507.5z"/>
<path class="st0" d="M496.85,507.5c-1.96,0-3.92,0-5.88,0c-0.67-5.94-1.33-11.89-2-17.83h9.5
	C497.94,495.61,497.39,501.55,496.85,507.5z"/>
<rect x="465.07" y="415.35" class="st0" width="45.62" height="16.38"/>
<path class="st0" d="M512.32,490c-16.29,0.04-32.58,0.08-48.88,0.12c0.54-10,1.08-20,1.62-30h45.62
	C511.24,470.08,511.78,480.04,512.32,490z"/>
</svg>
